Edit_record_scripts21 as "Edit record scripts"
{
    type =  form
	form = Fourth_Qtr
	on edit
	{
		actions 
		{
			on load
			(
				/*meetingTime = addDay(input.Start_Date_Time,91);
				// here, input.Date_Time refers to the date-time field in the form.
				for each rec in Fourth_Qtr  [ID != 0]
				{
				    input.Start_Date_Time = meetingTime;
				}
				meetingTime2 = addDay(input.End_Date_Time,91);
				// here, input.Date_Time refers to the date-time field in the form.
				for each rec in Fourth_Qtr  [ID != 0]
				{
				    input.End_Date_Time = meetingTime2;
				}
				/*newStart = Start_Date_Time.addDay(31);
				newStart.totime()
				for each rec in Fourth_Qtr [ Start_Date_Time != null ]
				{
					input.add31 = Start_Date_Time;
				} */
			)	
		}
	}
}


