Force_Sync_Donation_10 as "Force Sync Donation 3"
{
    type =  schedule
	start = "2015-12-11 01:30:00"
	frequency = daily
	on start
	{
		actions 
		{
			on load
			(
				thisapp.sched.forceSyncDonationToReservation();
			)	
		}
	}
}


